newmtl Material2
Ka 0.207843 0.207843 0.207843
Kd 0.207843 0.207843 0.207843
Ks 0 0 0
Ns 127
newmtl Material3
Ka 0.839216 0.215686 0.152941
Kd 0.839216 0.215686 0.152941
Ks 0.309804 0.309804 0.309804
Ns 127
newmtl Default
Ka 0.588 0.588 0.588
Kd 0.588 0.588 0.588
Ks 0 0 0
Ns 10
newmtl Material4
Ka 0.72549 0.72549 0.72549
Kd 0.72549 0.72549 0.72549
Ks 0.258824 0.258824 0.258824
Ns 127
